\contentsline {section}{\numberline {1}Ejercicios de latex}{1}{section.1}
\contentsline {subsection}{\numberline {1.1}Elementary calculations}{1}{subsection.1.1}
\contentsline {subsection}{\numberline {1.2}Creating a matrix}{1}{subsection.1.2}
\contentsline {subsection}{\numberline {1.3}Matrix arithmetic}{2}{subsection.1.3}
\contentsline {subsection}{\numberline {1.4}Solving systems of liner equations}{3}{subsection.1.4}
\contentsline {subsection}{\numberline {1.5}Integrating differential equations}{4}{subsection.1.5}
\contentsline {subsection}{\numberline {1.6}Producing graphical output}{6}{subsection.1.6}
\contentsline {section}{\numberline {2}Tema de interes}{6}{section.2}
\contentsline {subsection}{\numberline {2.1}datos de la investigacion}{6}{subsection.2.1}
\contentsline {section}{\numberline {3}Resumen del articulo}{7}{section.3}
\contentsline {section}{\numberline {4}repositorio}{8}{section.4}
